^C:\USERS\TOBBE\DROPBOX\PROGRAMMING\NEW RAYTRACER\WIN323DVIEW\WIN323DVIEW\DEBUG\ALGEBRA.OBJ|C:\USERS\TOBBE\DROPBOX\PROGRAMMING\NEW RAYTRACER\WIN323DVIEW\WIN323DVIEW\DEBUG\BITMAP.OBJ|C:\USERS\TOBBE\DROPBOX\PROGRAMMING\NEW RAYTRACER\WIN323DVIEW\WIN323DVIEW\DEBUG\CAMERA.OBJ|C:\USERS\TOBBE\DROPBOX\PROGRAMMING\NEW RAYTRACER\WIN323DVIEW\WIN323DVIEW\DEBUG\MAIN.OBJ|C:\USERS\TOBBE\DROPBOX\PROGRAMMING\NEW RAYTRACER\WIN323DVIEW\WIN323DVIEW\DEBUG\MESH.OBJ|C:\USERS\TOBBE\DROPBOX\PROGRAMMING\NEW RAYTRACER\WIN323DVIEW\WIN323DVIEW\DEBUG\RAY.OBJ|C:\USERS\TOBBE\DROPBOX\PROGRAMMING\NEW RAYTRACER\WIN323DVIEW\WIN323DVIEW\DEBUG\RAYTRACER.OBJ|C:\USERS\TOBBE\DROPBOX\PROGRAMMING\NEW RAYTRACER\WIN323DVIEW\WIN323DVIEW\DEBUG\SCENE.OBJ|C:\USERS\TOBBE\DROPBOX\PROGRAMMING\NEW RAYTRACER\WIN323DVIEW\WIN323DVIEW\DEBUG\SPHERE.OBJ|C:\USERS\TOBBE\DROPBOX\PROGRAMMING\NEW RAYTRACER\WIN323DVIEW\WIN323DVIEW\DEBUG\SSE.OBJ|C:\USERS\TOBBE\DROPBOX\PROGRAMMING\NEW RAYTRACER\WIN323DVIEW\WIN323DVIEW\DEBUG\UTILITIES.OBJ
C:\USERS\TOBBE\DROPBOX\PROGRAMMING\NEW RAYTRACER\WIN323DVIEW\DEBUG\WIN323DVIEW.ILK
C:\USERS\TOBBE\DROPBOX\PROGRAMMING\NEW RAYTRACER\WIN323DVIEW\DEBUG\WIN323DVIEW.EXE
C:\USERS\TOBBE\DROPBOX\PROGRAMMING\NEW RAYTRACER\WIN323DVIEW\DEBUG\WIN323DVIEW.PDB
