^C:\USERS\TOBBE\DESKTOP\NEW RAYTRACER\WIN323DVIEW\WIN323DVIEW\MAIN.CPP|C:\USERS\TOBBE\DESKTOP\NEW RAYTRACER\WIN323DVIEW\WIN323DVIEW\RAYTRACER.CPP|C:\USERS\TOBBE\DESKTOP\NEW RAYTRACER\WIN323DVIEW\WIN323DVIEW\UTILITIES.CPP
C:\USERS\TOBBE\DESKTOP\NEW RAYTRACER\WIN323DVIEW\WIN323DVIEW\RELEASE\RAYTRACER.OBJ
^C:\USERS\TOBBE\DESKTOP\NEW RAYTRACER\WIN323DVIEW\WIN323DVIEW\ALGEBRA.CPP|C:\USERS\TOBBE\DESKTOP\NEW RAYTRACER\WIN323DVIEW\WIN323DVIEW\BITMAP.CPP|C:\USERS\TOBBE\DESKTOP\NEW RAYTRACER\WIN323DVIEW\WIN323DVIEW\CAMERA.CPP|C:\USERS\TOBBE\DESKTOP\NEW RAYTRACER\WIN323DVIEW\WIN323DVIEW\MAIN.CPP|C:\USERS\TOBBE\DESKTOP\NEW RAYTRACER\WIN323DVIEW\WIN323DVIEW\MESH.CPP|C:\USERS\TOBBE\DESKTOP\NEW RAYTRACER\WIN323DVIEW\WIN323DVIEW\RAY.CPP|C:\USERS\TOBBE\DESKTOP\NEW RAYTRACER\WIN323DVIEW\WIN323DVIEW\RAYTRACER.CPP|C:\USERS\TOBBE\DESKTOP\NEW RAYTRACER\WIN323DVIEW\WIN323DVIEW\SCENE.CPP|C:\USERS\TOBBE\DESKTOP\NEW RAYTRACER\WIN323DVIEW\WIN323DVIEW\SPHERE.CPP|C:\USERS\TOBBE\DESKTOP\NEW RAYTRACER\WIN323DVIEW\WIN323DVIEW\SSE.CPP|C:\USERS\TOBBE\DESKTOP\NEW RAYTRACER\WIN323DVIEW\WIN323DVIEW\UTILITIES.CPP
C:\USERS\TOBBE\DESKTOP\NEW RAYTRACER\WIN323DVIEW\WIN323DVIEW\RELEASE\UTILITIES.OBJ
C:\USERS\TOBBE\DESKTOP\NEW RAYTRACER\WIN323DVIEW\WIN323DVIEW\RELEASE\SSE.OBJ
C:\USERS\TOBBE\DESKTOP\NEW RAYTRACER\WIN323DVIEW\WIN323DVIEW\RELEASE\SPHERE.OBJ
C:\USERS\TOBBE\DESKTOP\NEW RAYTRACER\WIN323DVIEW\WIN323DVIEW\RELEASE\SCENE.OBJ
C:\USERS\TOBBE\DESKTOP\NEW RAYTRACER\WIN323DVIEW\WIN323DVIEW\RELEASE\RAYTRACER.OBJ
C:\USERS\TOBBE\DESKTOP\NEW RAYTRACER\WIN323DVIEW\WIN323DVIEW\RELEASE\RAY.OBJ
C:\USERS\TOBBE\DESKTOP\NEW RAYTRACER\WIN323DVIEW\WIN323DVIEW\RELEASE\MESH.OBJ
C:\USERS\TOBBE\DESKTOP\NEW RAYTRACER\WIN323DVIEW\WIN323DVIEW\RELEASE\MAIN.OBJ
C:\USERS\TOBBE\DESKTOP\NEW RAYTRACER\WIN323DVIEW\WIN323DVIEW\RELEASE\CAMERA.OBJ
C:\USERS\TOBBE\DESKTOP\NEW RAYTRACER\WIN323DVIEW\WIN323DVIEW\RELEASE\BITMAP.OBJ
C:\USERS\TOBBE\DESKTOP\NEW RAYTRACER\WIN323DVIEW\WIN323DVIEW\RELEASE\ALGEBRA.OBJ
^C:\USERS\TOBBE\DESKTOP\NEW RAYTRACER\WIN323DVIEW\WIN323DVIEW\ALGEBRA.CPP
C:\USERS\TOBBE\DESKTOP\NEW RAYTRACER\WIN323DVIEW\WIN323DVIEW\RELEASE\VC110.PDB
^C:\USERS\TOBBE\DESKTOP\NEW RAYTRACER\WIN323DVIEW\WIN323DVIEW\BITMAP.CPP
C:\USERS\TOBBE\DESKTOP\NEW RAYTRACER\WIN323DVIEW\WIN323DVIEW\RELEASE\VC110.PDB
^C:\USERS\TOBBE\DESKTOP\NEW RAYTRACER\WIN323DVIEW\WIN323DVIEW\CAMERA.CPP
C:\USERS\TOBBE\DESKTOP\NEW RAYTRACER\WIN323DVIEW\WIN323DVIEW\RELEASE\VC110.PDB
^C:\USERS\TOBBE\DESKTOP\NEW RAYTRACER\WIN323DVIEW\WIN323DVIEW\MESH.CPP
C:\USERS\TOBBE\DESKTOP\NEW RAYTRACER\WIN323DVIEW\WIN323DVIEW\RELEASE\VC110.PDB
^C:\USERS\TOBBE\DESKTOP\NEW RAYTRACER\WIN323DVIEW\WIN323DVIEW\RAY.CPP
C:\USERS\TOBBE\DESKTOP\NEW RAYTRACER\WIN323DVIEW\WIN323DVIEW\RELEASE\VC110.PDB
^C:\USERS\TOBBE\DESKTOP\NEW RAYTRACER\WIN323DVIEW\WIN323DVIEW\RAYTRACER.CPP
C:\USERS\TOBBE\DESKTOP\NEW RAYTRACER\WIN323DVIEW\WIN323DVIEW\RELEASE\VC110.PDB
^C:\USERS\TOBBE\DESKTOP\NEW RAYTRACER\WIN323DVIEW\WIN323DVIEW\SCENE.CPP
C:\USERS\TOBBE\DESKTOP\NEW RAYTRACER\WIN323DVIEW\WIN323DVIEW\RELEASE\VC110.PDB
^C:\USERS\TOBBE\DESKTOP\NEW RAYTRACER\WIN323DVIEW\WIN323DVIEW\SPHERE.CPP
C:\USERS\TOBBE\DESKTOP\NEW RAYTRACER\WIN323DVIEW\WIN323DVIEW\RELEASE\VC110.PDB
^C:\USERS\TOBBE\DESKTOP\NEW RAYTRACER\WIN323DVIEW\WIN323DVIEW\SSE.CPP
C:\USERS\TOBBE\DESKTOP\NEW RAYTRACER\WIN323DVIEW\WIN323DVIEW\RELEASE\VC110.PDB
^C:\USERS\TOBBE\DESKTOP\NEW RAYTRACER\WIN323DVIEW\WIN323DVIEW\UTILITIES.CPP
C:\USERS\TOBBE\DESKTOP\NEW RAYTRACER\WIN323DVIEW\WIN323DVIEW\RELEASE\VC110.PDB
^C:\USERS\TOBBE\DESKTOP\NEW RAYTRACER\WIN323DVIEW\WIN323DVIEW\MAIN.CPP
C:\USERS\TOBBE\DESKTOP\NEW RAYTRACER\WIN323DVIEW\WIN323DVIEW\RELEASE\MAIN.OBJ
C:\USERS\TOBBE\DESKTOP\NEW RAYTRACER\WIN323DVIEW\WIN323DVIEW\RELEASE\VC110.PDB
